<?xml version="1.0" encoding="utf-8"?>
<!-- Generator: Adobe Illustrator 16.0.0, SVG Export Plug-In . SVG Version: 6.00 Build 0)  -->
<!DOCTYPE svg PUBLIC "-//W3C//DTD SVG 1.1//EN" "http://www.w3.org/Graphics/SVG/1.1/DTD/svg11.dtd">
<svg version="1.1" id="Layer_1" xmlns="http://www.w3.org/2000/svg" xmlns:xlink="http://www.w3.org/1999/xlink" x="0px" y="0px"
	 width="40px" height="40px" viewBox="0 0 40 40" enable-background="new 0 0 40 40" xml:space="preserve">
<g>
	<circle fill-rule="evenodd" clip-rule="evenodd" fill="#A4FF93" cx="20" cy="20" r="19"/>
	<g>
		<path fill-rule="evenodd" clip-rule="evenodd" fill="#545454" d="M30.354,15.811c-2.235-0.278-4.178,0.386-5.835,0
			c-2.234-0.521-2.316-2.458-5.48-1.946c-1.59,0.258-1.885,1.553-3.358,1.946c-1.488,0.395-3.539-0.279-6.012,0
			c0.076-2.323-0.516-5.188,1.414-6.011c1.378-0.588,5.454-0.177,8.31-0.177c4.268,0,9.747-1.023,10.786,1.414
			C30.705,12.273,30.144,14.534,30.354,15.811z M12.321,15.28c0.41-1.18,0.06-3.123,0.177-4.597
			c-0.309,0.014-0.55-0.039-0.708-0.176C11.751,11.634,10.936,14.995,12.321,15.28z M11.083,15.28c0.371-0.575,0.242-3.48,0-4.597
			C10.401,11.266,9.658,14.868,11.083,15.28z M13.558,15.28c0.411-1.18,0.061-3.123,0.178-4.597c-0.296,0-0.59,0-0.885,0
			C13.197,12.105,12.084,14.986,13.558,15.28z M14.442,15.28c1.138-0.571,0.248-3.17,0.532-4.597c-0.295,0-0.59,0-0.885,0
			C14.31,12.111,13.637,14.437,14.442,15.28z M28.586,10.86c-3.294-0.947-4.866,1.349-3.535,3.89
			C28.268,16.343,30.811,13.051,28.586,10.86z"/>
		<path fill-rule="evenodd" clip-rule="evenodd" fill="#545454" d="M22.928,15.634c-1.723-0.098-3.844-0.566-5.833,0.177
			C18.247,14.242,21.555,14.337,22.928,15.634z"/>
		<path fill-rule="evenodd" clip-rule="evenodd" fill="#545454" d="M15.326,16.871c-2.949,9.239,12.318,9.116,9.371,0.177
			c1.533-0.412,3.829-0.06,5.657-0.177c-0.805,3.625,1.663,11.918-1.415,13.26c-2.095,0.915-6.25,0.178-9.016,0.178
			c-3.202,0-9.134,0.812-10.079-1.415c-0.739-1.743-0.176-4.079-0.176-5.657c0-1.853,0-3.557,0-5.834c0-0.177,0-0.354,0-0.531
			C11.554,16.871,13.44,16.871,15.326,16.871z"/>
		<path fill-rule="evenodd" clip-rule="evenodd" fill="#545454" d="M16.563,16.871c0.492,0.585-0.286,1.306-0.176,2.476
			c0.509,5.475,9.691,3.017,6.896-2.476c2.133,1.404,0.822,4.465-0.531,5.481c-3.365,2.529-8.68-0.893-6.542-5.481
			C16.328,16.871,16.446,16.871,16.563,16.871z"/>
	</g>
</g>
</svg>
