<?xml version="1.0" encoding="utf-8"?>
<!-- Generator: Adobe Illustrator 16.0.4, SVG Export Plug-In . SVG Version: 6.00 Build 0)  -->
<!DOCTYPE svg PUBLIC "-//W3C//DTD SVG 1.1//EN" "http://www.w3.org/Graphics/SVG/1.1/DTD/svg11.dtd">
<svg version="1.1" id="Layer_1" xmlns="http://www.w3.org/2000/svg" xmlns:xlink="http://www.w3.org/1999/xlink" x="0px" y="0px"
	 width="240px" height="82px" viewBox="0 0 240 82" enable-background="new 0 0 240 82" xml:space="preserve">
<g>
	<path fill-rule="evenodd" clip-rule="evenodd" fill="#B0D689" d="M239.877,1.396c-0.39-0.048-0.696,0.015-1.104-0.059
		c-1.697,0.492-3.38,1.002-5.35,1.13c-0.221-0.212-0.194-0.774,0.007-1.074c0.757-0.21,1.642-0.405,2.59-0.625
		c0.64-0.147,1.427-0.265,2.285-0.432c0.565-0.11,1.193-0.419,1.623-0.337C240.821,0.169,240.327,1.045,239.877,1.396z"/>
	<path fill-rule="evenodd" clip-rule="evenodd" fill="#B0D689" d="M217.134,4.563c2.286-0.363,4.09-1.644,6.608-1.518
		c0.479,0.614-0.086,1.238-0.648,1.36c-1.048-0.175-1.566,0.354-2.584,0.578c-0.558,0.123-0.992,0.205-1.538,0.396
		C218.079,5.69,216.692,6.037,217.134,4.563z"/>
	<path fill-rule="evenodd" clip-rule="evenodd" fill="#B0D689" d="M201.824,8.338c0.284-0.229,0.637-0.104,0.947-0.15
		c0.838-0.122,1.637-0.692,2.412-1.022c0.368-0.157,0.758-0.163,1.077-0.412c1.148-0.063,2.003-0.519,3.299-0.386
		c0.584,0.457-0.006,1.187-0.558,1.374c-0.229,0.077-0.492-0.009-0.747,0.036c-0.169,0.031-0.279,0.18-0.448,0.219
		c-0.329,0.077-0.722,0.018-1.032,0.092c-0.322,0.075-0.577,0.264-0.817,0.214c-0.573,0.268-1.63,0.863-2.471,1.108
		C202.549,9.684,201.246,9.651,201.824,8.338z"/>
	<path fill-rule="evenodd" clip-rule="evenodd" fill="#B0D689" d="M194.573,11.17c-1.604-0.381-2.931,0.596-4.312,0.667
		c-0.118,0.06-0.198,0.171-0.312,0.238c-0.615,0.231-1.844,0.197-2.61,0.434c-0.404,0.125-0.803,0.359-1.063,0.32
		c-0.881-0.13-1.018-1.186-0.262-1.486c0.572,0.119,0.926-0.244,1.441-0.362c0.485-0.111,1.032-0.055,1.507-0.166
		c1.635-0.38,3.273-1.056,4.542-1.336c0.323-0.071,0.983,0.196,1.295,0.367C195.163,10.275,194.856,10.785,194.573,11.17z"/>
</g>
<path fill-rule="evenodd" clip-rule="evenodd" fill="#B0D689" d="M133.704,33.677c1.719-0.91,2.574-2.46,4.164-3.465
	c0.396-0.511,0.903-0.938,1.442-1.343c0.269-0.509,0.958-0.972,1.383-1.458c0.447-0.512,0.849-1.537,1.723-0.846
	c0.735-0.58,1.577-0.903,2.055-1.646c0.663-1.03,0.072-2.238-0.128-3.548c-0.429-0.251-0.827-0.571-1.397-0.531
	c-0.376,0.027-1.037,0.302-1.468,0.351c-1.402,0.163-3.413,0.014-5.204,0.14c-0.487,0.034-1.027-0.034-1.531-0.055
	c-0.469-0.02-0.936-0.129-1.295-0.131c-0.289-0.003-0.728,0.044-0.811,0.083c-0.437,0.204-0.469,0.996-1.263,0.9
	c-0.245-0.03-0.699-0.159-0.818-0.248c-0.065-0.047-0.037-0.112-0.117-0.23c-0.142-0.207-0.322-0.492-0.297-0.867
	c-0.375-0.237-0.887-0.285-1.338-0.417c-0.239-0.097-0.443-0.24-0.739-0.258c-0.567-0.381-1.135-0.761-1.696-1.149
	c-0.281-0.308-0.353-0.644-0.664-0.852c0.055-0.273-0.374-0.762-0.216-0.879c-0.247-0.249-0.254-0.828-0.494-1.085
	c0.124-0.214,0.055-0.63-0.064-0.696c0.016-0.468,0.218-0.865,0.131-1.307c0.189-0.67,0.148-1.084,0.425-1.808
	c0.473-0.389,0.931-0.707,1.525-1.065c0.719-0.196,1.138-0.396,1.707-0.678c0.342,0.155,0.653-0.111,0.925-0.143
	c0.087-0.01,0.136,0.09,0.219,0.091c0.12,0.001,0.484-0.17,0.879-0.177c0.537-0.01,1.035,0.18,1.561,0.257
	c0.285,0.041,0.574,0.019,0.835,0.078c0.445,0.1,0.931,0.307,1.385,0.45c1.343,0.425,2.165,1.364,3.01,2.481
	c0.188,0.249,0.302,0.557,0.531,0.789c0.383,0.387,0.842,0.617,1.116,1.114c0.396,0.174,0.672,0.515,0.985,0.803
	c1.195,0.541,2.584,0.622,3.716,1.169c0.03,0.161-0.118,0.318,0.027,0.452c0.32,0.227,0.718,0.108,1.061,0.209
	c0.404,0.121,0.721,0.497,1.115,0.575c0.484,0.173,0.744,0.856,1.279,0.84c0.305-0.009,0.853-0.331,1.271-0.569
	c1.237-0.705,2.614-1.465,3.7-2.19c1.687-0.551,3.017-1.545,4.503-2.312c0.506-0.262,1.1-0.406,1.627-0.667
	c0.412-0.203,0.781-0.564,1.193-0.807c0.676-0.396,1.422-0.667,2.153-0.996c2.092-1.353,4.612-2.39,6.716-3.734
	c0.989-0.526,2.078-0.979,3.108-1.475c0.337,0.187,1.75-0.712,1.836,0.173c0.048,0.489-0.609,0.775-0.996,1.025
	c-0.363,0.234-0.666,0.584-1.067,0.828c-0.844,0.513-1.565,1.063-2.348,1.607c-0.527,0.367-0.777,0.599-1.423,0.925
	c-0.334,0.169-0.604,0.596-0.94,0.851c-0.163,0.123-0.377,0.174-0.532,0.289c-0.406,0.301-0.745,0.672-1.176,0.928
	c-0.243,0.145-0.494,0.222-0.727,0.361c-0.2,0.119-0.347,0.325-0.548,0.458c-0.521,0.345-1.176,0.477-1.537,0.983
	c-0.527,0.19-0.846,0.638-1.25,0.981c-0.307,0.261-0.714,0.419-1.053,0.66c-1.399,1.001-3.018,1.907-4.491,2.935
	c-0.816,0.569-1.657,1.053-2.348,1.607c-0.144,0.116-0.728,0.627-0.718,0.692c0.019,0.12,0.86,0.37,1.011,0.424
	c1.076,0.383,2.056,0.799,2.993,1.28c0.452,0.008,0.86,0.186,1.285,0.341c0.623,0.227,1.201,0.331,1.806,0.509
	c0.699,0.207,1.516,0.521,2.21,0.737c0.895,0.28,1.818,0.503,2.711,0.785c0.912,0.288,1.868,0.43,2.711,0.785
	c0.318-0.082,0.796,0.176,1.188,0.232c0.125,0.018,0.403-0.025,0.575-0.006c0.717,0.078,1.5,0.43,2.306,0.556
	c0.613,0.096,0.976,0.089,1.589,0.17c0.761,0.101,1.528,0.419,2.434,0.578c0.628,0.111,2.21,0.283,2.371,0.713
	c0.146,0.389-0.202,0.567-0.325,0.839c-1.026,0.233-1.463-0.342-2.418-0.208c-2.011-0.586-4.548-0.451-6.471-1.159
	c-0.383,0.052-0.674-0.021-0.928-0.146c-0.447,0.241-0.716-0.025-1.208-0.104c-0.682-0.109-1.438,0.026-1.902-0.329
	c-0.163,0.012-0.212,0.106-0.396,0.102c-1.215-0.29-2.585-0.294-3.911-0.557c-1.354-0.27-2.671-0.675-4.103-0.736
	c-0.139-0.152-0.38-0.165-0.537-0.29c-0.132,0.011-0.159,0.097-0.316,0.09c-0.237-0.098-0.523-0.131-0.738-0.259
	c-0.134,0.02-0.268,0.041-0.402,0.062c-0.388-0.219-0.961-0.086-1.555-0.216c-0.652-0.142-1.33-0.314-1.994-0.397
	c-0.177-0.022-0.416,0.034-0.615,0.012c-0.648-0.072-1.373-0.426-1.854-0.294c-0.463,0.127-1.252,0.957-1.662,1.252
	c-0.605,0.438-1.178,0.762-1.574,1.281c0.399,0.464,0.529,1.245,0.271,1.784c-0.921,1.284-1.871,2.548-2.514,4.039
	c-0.01,0.733-0.221,1.491-0.144,2.304c0.059,0.613,0.223,1.256,0.295,1.946c0.133,1.248-0.302,2.115-0.515,3.109
	c-0.309,0.58-0.603,1.264-0.994,1.854c-0.281,0.424-0.384,0.661-0.742,1.068c-0.771,0.878-1.554,1.727-2.633,2.439
	c-0.526,0.347-1.17,0.739-1.677,0.882c-2.173,0.613-3.708-0.195-4.925-1.272c-0.576-0.834-1.016-1.91-1.655-2.773
	c0.021-0.815-0.44-1.827-0.072-2.644c-0.035-0.002-0.035,0.021-0.034,0.048c0.185-1.26,0.562-2.521,1.415-3.415
	c0.251-0.629,0.602-1.186,1.065-1.658c0.114-0.59-0.132-1.246,0.189-1.731C132.224,33.709,133.12,33.408,133.704,33.677z
	 M173.405,28.791c-1.195-0.172-2.595-0.531-3.861-0.773c-0.555-0.106-1.14-0.149-1.762-0.226c-0.467-0.058-1.101-0.258-1.392-0.491
	c-1.213-0.187-2.426-0.391-3.54-0.823c-0.21-0.081-0.368-0.222-0.578-0.284c-0.713-0.212-1.296-0.351-1.972-0.525
	c-0.489-0.126-0.956-0.344-1.432-0.484c-1.104-0.326-2.121-0.488-3.104-0.932c-0.396-0.178-0.811-0.271-1.218-0.434
	c-0.783-0.313-1.57-0.724-2.43-0.829c-0.186-0.088-0.306-0.267-0.538-0.291c-0.835,0.833-1.902,1.494-2.778,2.296
	c3.24,0.407,6.263,1.015,9.42,1.615c1.635,0.311,3.311,0.49,4.938,0.814c0.815,0.163,1.668,0.171,2.517,0.317
	c0.828,0.142,1.66,0.268,2.489,0.404c1.253,0.205,2.496,0.478,3.75,0.582c0.576,0.048,1.064,0.212,1.549,0.176
	c0.03-0.014,0.042-0.042,0.028-0.087C173.459,28.814,173.412,28.83,173.405,28.791z M167.521,9.825
	c-0.106,0.017-0.214,0.034-0.321,0.05c-0.104,0.102-0.192,0.218-0.324,0.299c-0.97,0.305-1.826,0.881-2.518,1.302
	c-0.267,0.163-0.581,0.307-0.835,0.461c-0.173,0.104-0.397,0.24-0.572,0.295c-0.519,0.166-0.687,0.414-1.17,0.43
	c-0.223,0.103-0.404,0.293-0.634,0.43c-0.649,0.387-1.422,0.719-2.055,1.105c-0.319,0.196-0.584,0.545-1.042,0.451
	c-1.031,0.437-1.652,1.2-2.889,1.567c-0.688,0.425-1.32,0.933-2.069,1.273c-0.172,0.078-0.379,0.084-0.551,0.168
	c-0.485,0.236-0.957,0.626-1.463,0.932c-0.504,0.304-1.045,0.608-1.556,0.862c-0.595,0.295-1.037,0.555-1.614,0.747
	c-0.779,0.611-2.007,0.889-2.543,1.679c0.212,0.547,0.492,1.218,0.41,1.887c-0.056,0.446-0.423,0.917-0.372,1.344
	c-0.44,0.644-0.955,0.995-1.659,1.542c-0.346,0.27-0.937,0.888-1.302,0.907c-0.184,0.01-0.402-0.245-0.566-0.204
	c-0.148,0.039-0.231,0.262-0.3,0.462c0.595,0.009,1.262,0.299,1.629,0.703c0.114,0.125,0.298,0.354,0.367,0.524
	c0.092,0.223-0.046,0.677,0.318,0.739c0.205-0.113,0.238-0.351,0.282-0.583c-0.286-0.31-0.602-0.811-0.513-1.207
	c0.033-0.15,0.347-0.414,0.529-0.58c0.586-0.533,0.972-0.792,1.615-1.287c0.617-0.476,1.288-0.918,1.803-1.398
	c-0.515-0.501-1.313-0.51-1.452-1.436c-0.109-0.728,0.207-1.65,0.803-2.032c0.49-0.315,1.113-0.269,1.821-0.199
	c0.424,0.283,0.817,0.766,0.917,1.436c0.035,0.232-0.082,0.496,0.139,0.642c0.3-0.142,0.536-0.373,0.776-0.577
	c0.268-0.227,0.54-0.344,0.823-0.541c0.478-0.334,0.811-0.873,1.293-1.238c0.485-0.365,1.008-0.739,1.525-1.065
	c0.151-0.096,0.355-0.136,0.498-0.243c0.265-0.197,0.445-0.511,0.712-0.732c0.535-0.446,1.101-0.837,1.766-1.103
	c0.416-0.558,1.088-0.796,1.634-1.165c0.317-0.215,0.546-0.531,0.879-0.717c0.454-0.253,0.66-0.479,1.039-0.741
	c0.556-0.385,0.971-0.763,1.473-1.14c1.633-1.229,3.415-2.307,4.975-3.548c0.139-0.11,0.246-0.282,0.392-0.393
	c0.56-0.419,1.251-0.66,1.708-1.218C168.465,8.813,168.069,9.414,167.521,9.825z M148.924,22.821
	c-0.069-1.035-1.896-1.046-1.88,0.083C147.284,23.579,148.749,23.582,148.924,22.821z M144.715,18.948
	c-0.604-0.1-1.351-0.006-1.712-0.441c-0.032-0.155-0.047-0.298-0.021-0.412c-0.214-0.18-0.513-0.242-0.825-0.288
	c0.551,0.82,0.107,1.905-0.407,2.47c0.46,0.047,0.745-0.358,1.136-0.383c0.236-0.014,0.669,0.203,0.992,0.303
	c0.523,0.163,0.983,0.329,1.215,0.684c0.491-0.224,0.905-0.504,1.274-0.819C145.928,19.538,145.257,19.333,144.715,18.948z
	 M137.878,16.188c0.548-0.029,1.015,0.634,1.626,0.952c0.039,0.02,0.12-0.043,0.16-0.025c0.451,0.195,0.663,0.542,1.219,0.435
	c0.006,0.056,0.032,0.085,0.059,0.115c0.284,0.003,0.826,0.147,0.869,0.032c-0.655-0.096-1.175-0.38-1.84-0.462
	c-0.956-0.696-1.726-1.649-2.663-2.369c-0.533-0.819-1.159-1.511-1.743-2.262c-1.273-0.782-2.915-1.06-4.528-1.375
	c-0.438,0.114-0.937,0.044-1.42,0.137c-0.287,0.055-0.535,0.214-0.791,0.205c-0.072,0.067-0.18,0.107-0.263,0.166
	c-0.062-0.043-0.098-0.11-0.167-0.016c0.271,0.434,0.731-0.214,1.189-0.018c0.082,0,0.072-0.068,0.109-0.1
	c0.525,0.096,1.15,0.042,1.771,0.016c0.292,0.121,0.606,0.212,1.014,0.176c0.135,0.109,0.306,0.168,0.554,0.122
	c1.391,0.636,3.632,1.227,3.618,3.507c-0.005,0.751-0.239,1.362-0.395,2.012C136.856,17.113,137.13,16.226,137.878,16.188z
	 M137.09,19.669c1.338-0.138,2.248,0.31,3.603,0.149c0.487-0.299,1.088-0.513,1.006-1.233c-0.312-0.128-0.703-0.145-1.095-0.163
	c-1.001-0.307-1.791-0.905-2.71-1.325c-0.661,0.6-1.341,1.305-1.295,2.316C136.729,19.545,136.946,19.557,137.09,19.669z
	 M140.207,31.801c0.17,0.135,0.41,0.26,0.532,0.25c0.158-0.013,0.686-0.369,0.857-0.589c0.045-0.058,0.032-0.168,0.09-0.222
	c0.228-0.214,0.499-0.296,0.661-0.517c-0.027-0.366,0.429-0.566,0.48-0.904c0.069-0.455-0.253-0.708-0.528-1.039
	c-1.419-0.507-2.012,0.908-2.814,1.514c-0.021,0.176-0.104,0.306-0.134,0.477C139.637,31.162,139.863,31.529,140.207,31.801z
	 M140.12,32.852c-0.664-0.574-1.368-1.093-1.718-2.1c-0.855,0.47-1.317,1.231-2.029,1.808c0.564-0.12,0.885-0.331,1.67-0.382
	c0.3,0.128,0.678,0.146,0.986,0.262c0.445,0.598,1.077,0.938,1.443,1.645c0.36-0.153,0.507,0.024,0.727,0.178
	c0.242-0.912,1.031-1.611,1.234-2.432C141.87,32.293,141.105,33.156,140.12,32.852z M139.488,34.111
	c-0.318-0.411-1.017-0.885-1.437-1.064c-2.301,0.334-3.497,1.843-4.467,3.096c-0.14,0.181-0.308,0.337-0.455,0.527
	c-0.744,0.956-1.343,2.054-1.693,3.208c0.064,0.651-0.239,1.195-0.265,1.783c-0.062,1.478,0.779,2.51,1.674,3.434
	c0.545,0.106,0.908,0.447,1.396,0.532c1.296,0.223,2.558-0.625,3.06-1.262c0.346-0.437,0.554-0.897,0.826-1.33
	c0.216-0.343,0.481-0.577,0.554-0.958c0.14-0.028,0.131-0.166,0.258-0.205c0.331-1.025,1.075-1.745,1.016-3.061
	C140.453,37.42,140.437,35.333,139.488,34.111z M136.224,17.48c-1.067,1.898-4.026,2.155-6.056,1.848
	c-0.217-0.032-0.7-0.141-0.785,0.246c0.188,0.031,0.37,0.127,0.605,0.196c0.336,0.101,0.755,0.077,0.951,0.31
	c0.318,0.374-0.026,0.879,0.387,1.186c0.04-0.006,0.053,0.025,0.086,0.028c0.262-0.322,0.472-0.683,0.849-0.919
	c1.592-0.188,2.851,0.323,4.452,0.06c-0.371-0.155-0.522-0.32-0.862-0.531C135.558,18.782,135.987,18.335,136.224,17.48z
	 M134.451,18.002c1.146-0.646,1.521-2.292,1.242-3.469c-0.669-0.83-1.675-1.195-2.599-1.674c-0.613-0.013-1.258-0.32-1.907-0.369
	c-0.319-0.024-0.674,0.017-0.984,0.027c-0.709,0.022-1.33,0.286-1.933,0.547c-0.652,0.705-1.519,1.318-1.477,2.469
	c-0.052-0.001-0.092-0.051-0.074,0.052c-0.04,0.173,0.148,0.281,0.09,0.319c-0.041,0.006-0.053-0.025-0.087-0.028
	c0.294,1.105,0.906,1.586,1.622,2.28C130.068,18.277,132.618,19.036,134.451,18.002z M133.16,34.424
	c-0.182,0.083-0.403,0.134-0.492,0.283c0.002,0.373,0.143,0.555,0.312,0.699c0.228-0.251,0.523-0.452,0.618-0.801
	C133.435,34.569,133.213,34.613,133.16,34.424z M126.555,12.874c0.086,0.151-0.459,0.438-0.148,0.645
	c0.026-0.064,0.008-0.162,0.142-0.146c-0.006-0.17-0.114,0.074-0.104-0.149c0.365,0.082,0.732-0.557,0.872-0.756
	c0.301-0.063,0.707-0.451,1.083-0.458c-0.02-0.101-0.095-0.114-0.031-0.203c-0.339-0.149-0.482,0.416-0.705,0.233
	C127.331,12.31,126.801,12.553,126.555,12.874z M132.814,45.971c-0.443,0.09-0.607-0.423-0.952-0.31
	c0.069-0.12-0.19-0.084-0.084-0.277c-0.093,0.025-0.186-0.195-0.253-0.045c0.192,0.422,0.522,0.655,0.803,0.956
	c0.2-0.135,0.344-0.22,0.545-0.209C132.825,46.087,132.819,46.029,132.814,45.971z M130.329,40.712
	c0.039-0.081,0.091-0.339-0.021-0.412C130.411,40.479,130.114,40.684,130.329,40.712z M130.301,40.799
	c-0.121,0.163-0.222,0.53-0.09,0.761C130.155,41.25,130.487,41.092,130.301,40.799z M130.244,42.052
	C130.291,41.734,130.027,41.587,130.244,42.052L130.244,42.052z"/>
<g>
	<path fill-rule="evenodd" clip-rule="evenodd" d="M73.626,24.222c-0.25,0.11,0.38,0.257,0.087,0.442
		c-1.23,0.008-2.137,0.246-3.065-0.354c0-0.206,0-0.412,0-0.618c0.609-0.603,2.11,0.244,2.802-0.177
		c-0.151,0.391,0.57-0.271,0.963-0.177c-0.046,0.071-0.091,0.144-0.087,0.265c0.377,0.116,0.108-0.42,0.438-0.353
		c0.214,0.306,0.214,0.842,0,1.148C74.31,24.484,73.838,24.575,73.626,24.222z"/>
	<path fill-rule="evenodd" clip-rule="evenodd" d="M66.095,50.538c1.863-0.691,2.522-4.476,4.904-3.003
		c0.032,0.899,0.246,1.094,0.525,1.679c0.661-0.744,2.044-0.874,2.978-0.266c1.134,1.604,0.505,3.72,0.525,5.476
		c0.025,2.193,0.161,4.5,0.875,6.357c0.903-0.002,1.036-0.782,1.665-1.059c0.502-1.362,1.204-2.654,1.751-4.062
		c0.578-1.489,0.699-3.189,1.489-4.416c0.097-0.725,0.294-1.521,0.701-1.677c-0.24-0.345-0.017-1.083,0.263-1.414
		c0.138-0.008,0.333,0.043,0.35-0.088c1.355,1.105,1.96,2.968,2.452,4.945c0.465,1.287,1.094,2.532,1.226,3.974
		c1.605-1.253,1.988-3.255,3.24-4.769c0.695-2.215,1.889-3.923,2.627-6.094c-0.861-0.341-2.444,0.291-2.977-0.795
		c0.686-0.721,2.525-0.278,3.59-0.617c0.73-0.872,0.812-1.856,1.401-2.827c1.056,0.003,0.797,1.949,0,2.384
		c0.247,0.226,0.485,0.921,0.263,1.325c-1.691,0.468-1.904,5.895-3.152,7.948c0.076,0.78-0.115,1.982-0.525,2.561
		c0.094,0.884-0.245,2.03-0.525,2.825c0.343,0.761-0.055,1.685,0.351,2.473c2.036-1.728,2.267-4.95,3.765-7.063
		c0.055-1.448,0.198-3.488,1.489-3.975c1.172,1.298-0.876,2.99,0,4.327c1.348-0.731,1.821-2.344,2.364-3.886
		c0.313-0.024,0.681-0.309,0.963-0.089c-0.274,0.305,0.042,0.298,0.175,0.619c-0.344,3.021-2.283,6.074-1.401,9.184
		c1.946-1.394,2.446-4.244,3.678-6.358c0.063-0.27-0.089-0.321-0.088-0.53c0.741-0.637,0.579-2.652,1.751-2.562
		c0.459,0.146,0.046,0.666,0.351,0.884c-0.898,1.655-1.188,3.925-1.839,5.828c0.198,0.419,0.129,1.106,0.35,1.502
		c1.893-0.419,2.087-3.31,3.24-4.769c0.446-0.963,0.306-2.518,1.488-2.737c0.114,0.352,0.103,0.691,0.438,0.618
		c-0.391,2.114-2.086,5.57,0.087,7.063c0.771-0.611,1.766-1.082,1.664-2.561c-0.08-1.158,0.278-3.345,0.525-4.238
		c0.329-1.188,1.062-2.523,2.714-2.208c0.167,0.538,0.33,1.08,0.438,1.679c-0.704,0.82-0.747,2.716-1.226,3.974
		c-0.321,0.844-1.379,1.655-0.262,2.472c1.702,0.139,2.802-2.366,3.24-3.885c0.262-0.91,0.273-2.023,0.525-3.002
		c0.37-1.442,0.721-2.628,1.05-3.887c-0.578-0.313-2.684,0.506-2.188-1.147c0.688-0.237,1.893-0.109,2.539-0.265
		c0.269-0.906,0.792-1.905,1.138-2.826c0.197-0.523,0.143-1.638,1.139-1.501c0.396,1.694-0.397,2.505-0.613,3.886
		c0.822-0.084,1.771-0.173,2.452,0.265c-0.032,1.859-1.907,0.384-2.89,1.235c-0.562,1.412-1.562,4.8-2.014,7.33
		c-0.199,1.113-0.58,2.528-0.175,3.355c0.179,0.366,1.172,1.233,1.577,1.237c1.244,0.011,1.101-1.915,2.189-1.943
		c0.113,0.596-0.078,0.773-0.35,1.236c-0.125,0.211-0.169,0.578-0.263,0.707c-0.077,0.105-0.362,0.061-0.438,0.176
		c-0.068,0.103,0.053,0.329,0,0.441c-0.136,0.289-0.795,0.775-0.875,0.795c-1.084,0.262-2.658-1.371-3.153-2.208
		c-0.508,0.165-0.75,0.599-1.05,0.972c-1.182,0.472-2.759,0.758-3.328-0.442c-0.803,0.428-1.341,1.121-2.014,1.679
		c-1.867,0.342-2.198-1.363-2.715-2.649c-0.529,0.706-1.184,1.812-2.102,2.385c-0.095,0.06-0.306-0.05-0.438,0
		c-0.444,0.167-0.198,0.374-0.526,0.354c-0.825-0.055-0.932-0.979-1.313-1.854c-0.441,0.075-0.341,0.678-0.525,1.06
		c-0.171,0.353-0.596,0.551-0.613,0.972c-0.587,0.144-0.817,0.647-1.313,0.883c-2.526-0.042-1.876-3.979-1.226-6.27
		c-0.45,0.131-1.417,0.594-2.014,0c-0.603-0.02-0.265,0.91-0.788,0.971c-0.187,1.235-1.074,2.5-1.401,3.886
		c-0.694,0.625-1.03,1.61-1.751,2.207c-2.064,0.412-2.078-2.425-1.839-4.062c0.038-0.259-0.001-0.565,0.35-0.618
		c-0.102-1.691,0.5-2.91,0.613-4.592c-0.44,0.267-0.404,0.845-0.613,1.236c-0.475,0.888-1.097,1.792-1.664,2.648
		c-0.569,0.86-1.087,1.785-1.751,2.562c-0.412,1.656-1.511,3.693-3.328,3.091c-0.049-0.22-0.438-0.553-0.175-0.795
		c0.222-0.471,0.671-0.175,1.05-0.354c0.994-0.468,1.498-2.098,1.577-3.268c0.174-2.602-1.657-5.394-1.751-7.064
		c-0.316-0.329-0.465-0.826-0.701-1.235c-0.604,0.627-0.611,1.855-1.138,2.561c-0.049,0.815-0.26,1.557-0.525,2.208
		c-0.257,0.629-0.474,1.339-0.963,1.766c-0.434,2.28-1.506,5.108-4.203,5.476c-2.582-2.423-0.907-8.302-1.839-12.275
		c-1.21-0.64-1.85,2.014-2.102,3.003c-0.761,2.99-1.67,6.355-2.364,9.095c-0.345,0.123-0.401,0.538-0.613,0.795
		c-0.393-0.016-0.477-0.343-0.701-0.529c0.736-4.525,3.226-9.602,2.189-14.129c-0.927,0.478-1.013,1.804-2.102,2.119
		c-0.414,0.76-1.033,1.312-1.751,1.767c0.086,0.929-0.12,1.723-0.35,2.648c-0.105,0.422-0.081,0.833-0.175,1.236
		c-0.297,1.266-1.019,2.349-1.489,3.443c-0.374,0.871-0.556,1.759-1.051,2.474c-0.089,0.128-0.298,0.111-0.438,0.265
		c-0.588,0.642-0.858,1.387-1.926,1.59c-2.019-0.506-1.374-4.304-1.576-6.094c-0.333,0.494-1.044,1.029-1.576,1.766
		c-0.184,0.257-0.221,0.636-0.438,0.884c-0.128,0.146-0.434,0.187-0.613,0.354c-0.428,0.398-1.112,1.486-1.751,1.59
		c-1.238,0.199-2.175-1.101-2.102-2.385c-0.928-1.154-1.069-3.102-1.664-4.592c-1.645,2.62,0.07,7.793-2.277,9.891
		c-0.852-0.436-0.216-1.472-0.088-2.297c0.277-1.767,0.301-4.058,0.876-5.652c-0.12-1.169,0.405-2.244,0.438-3.531
		c0.169-0.036,0.007-0.404,0.35-0.265c0.035-0.212-0.399,0.049-0.263-0.265c0.425-3.207,0.863-7.138,1.226-10.95
		c-1.469,1.99-2.871,4.988-4.291,7.063c-0.441,0.033-0.721-0.096-0.875-0.353c0.628-1.662,1.428-3.151,2.539-4.327
		c0.538-1.485,1.362-2.974,2.277-3.974c0-0.206,0-0.412,0-0.618c0.628-0.456,0.345-1.831,1.489-1.767
		c0.6,1.775,0.115,3.646-0.263,6.005c-0.161,1.004-0.122,2.18-0.263,3.179c-0.094,0.668-0.134,1.104-0.175,1.768
		c-0.072,1.152-0.526,2.229,0.525,2.736c1.4-0.707,1.915-2.308,2.89-3.443c0.006-0.612,0.273-0.962,0.613-1.236
		c0.361-0.872,0.357-2.112,1.576-2.119c-0.032,0.149,0.068,0.166,0.175,0.176c0.007,0.14-0.042,0.337,0.087,0.354
		c-1.014,1.758-1.851,4.42-3.24,6.006c-0.539,0.614-1.349,1.414-2.364,1.324c0.597,3.088,0.976,5.94,2.539,7.947
		c2.378-1.686,3.899-4.141,5.167-6.622c0.349-0.683,0.438-1.915,0.876-3.003c0.081-0.203,0.348-0.318,0.438-0.53
		c0.062-0.146-0.069-0.389,0-0.529c0.378-0.778,0.91-1.333,0.963-2.208c0.825-0.536,1.355-1.339,2.452-1.236
		C66.012,46.976,65.897,48.822,66.095,50.538z M64.957,48.684c-0.644-1.181-1.833-0.532-1.839,0.53
		c-0.006,1.046,0.906,1.422,1.926,1.589C65.125,50.008,64.846,49.229,64.957,48.684z M61.454,52.922
		c-0.429,2.544-1.79,6.581-0.613,9.449c1.037-0.192,1.243-0.958,1.751-1.767c0.731-1.163,1.478-2.938,1.839-4.238
		c0.208-0.751,0.072-1.643,0.613-2.208c-0.276-0.633,0.25-1.217,0.088-2.03c-1.465-0.111-1.94-0.686-2.978-1.236
		C61.942,51.589,61.693,52.251,61.454,52.922z M110.316,53.894c0.286-0.672,0.77-1.389,0.613-2.031
		C110.466,52.389,110.066,53.329,110.316,53.894z"/>
	<path fill-rule="evenodd" clip-rule="evenodd" d="M83.258,26.165c-0.194,0.049-0.125-0.168-0.263-0.176
		c0.274,0.671-0.073,1.351-0.438,1.677c0.424,1.631-1.557,3.52-0.438,5.034c0.642,0.288,1.347-0.412,1.664-0.265
		c0.932-1.061,1.799-2.188,2.365-3.62c0.146,0,0.292,0,0.438,0c-0.435-0.436,0.439-0.391,0.701-0.177c-0.176,1-0.55,1.8-1.226,2.296
		c0.071,0.604-0.312,1.013-0.701,0.883c-0.108,0.286,0.284,0.067,0.175,0.353c-0.846,0.678-1.476,1.573-2.802,1.766
		c0.327,1.18,0.835,2.788,1.401,3.885c0.295,0.572,0.907,1.849,1.839,1.855c0.391,0.002,1.261-0.698,1.576-1.06
		c0.715-0.821,1.058-2.136,1.576-3.002c0.13-0.102,0.221-0.102,0.351,0c-0.101-0.104-0.099-0.312-0.087-0.529
		c1.818-3.307,2.584-7.33,3.328-11.039c-0.604-0.087-1.061,0.068-1.751,0c-0.905-1.289,0.784-1.252,1.839-1.236
		c0.817-1.737,1.096-4.016,1.751-5.917c0.301-0.039,0.491,0.035,0.7,0.088c0.333,2.216-0.724,3.456-0.963,5.74
		c0.582,0.449,1.746,0.047,2.539,0.265c-0.077,0.38,0.002,0.72-0.175,1.148c-0.37-0.206-1.825,0.208-1.926-0.177
		c-0.792-0.009-0.973,0.994-1.139,1.766c-0.415,1.935-0.895,4.724-1.664,6.181c0.002,0.086,0.107,0.069,0.175,0.089
		c-0.36,0.522-0.352,1.622-0.526,2.384c-0.071-0.018-0.087-0.089-0.175-0.089c0.069,0.904,0.021,4.025,1.226,5.034
		c1.943-0.692,2.648-2.791,2.978-4.857c0.154-0.051,0.515,0.107,0.525-0.088c0.275,1.678-0.427,4.277-1.489,4.68
		c-0.003,0.526-0.338,0.718-0.875,0.706c-0.036,0.213,0.16,0.192,0.087,0.442c-0.206,0.028-0.329,0.139-0.613,0.088
		c0.057,0.09,0.201,0.092,0.175,0.265c-0.207-0.002-0.258,0.152-0.526,0.088c0.057,0.09,0.202,0.091,0.175,0.265
		c-1.976-0.276-2.294-2.051-2.715-3.62c-0.024-0.202,0.021-0.332,0.175-0.354c-0.093-0.259-0.35-0.354-0.35-0.707
		c-0.676,0.849-1.082,1.97-1.664,2.914c-0.75,0.48-1.302,1.159-2.014,1.678c-1.375,0.284-2.413-0.59-3.064-1.501
		c-0.764-1.067-1.406-3.155-1.577-3.974c-0.29-0.208-0.246-0.752-0.613-0.883c-0.41,0.752-0.609,2.028-0.701,2.826
		c-0.218-0.01-0.271-0.166-0.438,0c0.112,0.151,0.35,0.177,0.438,0.353c-0.334,1.025-0.356,2.605-0.875,3.532
		c0.138,1.099-0.308,2.059-0.963,2.474c-0.137-0.222-0.221-0.432-0.525-0.265c-0.231-0.692,0.332-1.282,0.525-1.943
		c0.347-1.188,0.342-2.566,0.788-3.709c-0.255-1.123,0.354-2.051,0.613-3.091c0.308-1.236,0.341-2.941,0.875-4.15
		c-0.036-1.066,0.357-1.701,0.701-2.384c-0.919,0.147-0.35,1.334-1.226,1.589c0.135,0.881-0.672,1.552-1.051,2.208
		c0.081,0.604-0.312,1.276-0.7,1.678c0.073,0.103,0.115,0.237,0.087,0.442c-1.534,2.045-2.395,4.767-4.466,6.27
		c-0.085-0.002-0.068-0.108-0.087-0.176c-0.17,0.416-0.486,0.292-0.701,0.53c-1.83-0.307-1.658-2.632-1.751-4.239
		c-0.629,0.597-1.307,1.502-1.751,2.119c-0.006,0.009-0.419-0.222-0.175,0.177c-0.521-0.226-0.66,1.119-1.051,0.354
		c-0.119,0.027-0.072,0.221-0.087,0.353c-1.944,0.353-2.911-2.454-2.102-4.503c-0.029-0.46-0.623,0.198-0.613-0.265
		c-0.99,0.885-2.149,1.6-3.064,2.561c-0.146,0-0.292,0-0.438,0c-0.364,0.163-0.24,0.818-0.788,0.795
		c-0.566,1.76-3.191,4.384-5.341,2.649c0.356-1.283,1.642-0.345,2.452-0.53c0.492-0.113,1.335-1.006,1.839-1.678
		c1.258-1.675,2.279-4.715,2.54-7.064c0.104-0.935,0.301-1.915-0.087-2.649c-0.76-0.019-1.041,0.876-1.577,0.794
		c-0.182,0.023-0.023,0.388-0.175,0.442c-1.922,0.654-2.112,1.977-3.677,2.914c0.001,0.175,0.238,0.112,0.175,0.353
		c-0.701,0.206-0.808,1.301-1.839,1.413c-0.22-0.219-0.384-0.496-0.438-0.883c1.586-1.374,3.062-2.859,4.554-4.327
		c0.279-0.076,0.271,0.139,0.438,0.176c0.003-0.151-0.065-0.229-0.175-0.265c0.195-0.43,0.717-0.452,1.051-0.706
		c0.373-0.283,0.652-0.897,1.051-1.148c0.134-0.084,0.335,0.002,0.438-0.088c0.174-0.152,0.111-0.727,0.876-0.618
		c0.326,1.666,1.054,3.187,0.262,4.592c0.45,0.693-0.278,1.112-0.087,1.854c-0.138,0.038-0.075,0.278-0.35,0.177
		c0.249,0.334,0.19,1.113-0.351,1.148c-0.07,0.306,0.131,0.339,0.087,0.618c1.026-0.566,1.988-1.108,2.715-1.766
		c0.281-0.077,0.181,0.229,0.351,0.265c0.213-0.088-0.172-0.39,0.262-0.353c0.189,0.277-0.185,0.597-0.175,0.971
		c0.07-0.046,0.142-0.092,0.263-0.088c0.021-1.126,0.931-1.744,1.226-3.091c0.903-0.637,1.33-1.556,2.014-2.561
		c1.393-0.758,3.45-0.992,3.94,0.794c1.174,0.066,0.451-1.782,1.751-1.589c0.539,1.377-0.841,2.702-1.576,4.592
		c-0.676,1.738-1.72,4.87-0.613,6.799c2.009-0.74,2.409-3.104,3.765-4.503c0.602-2.08,2-3.995,2.802-5.917
		c0.149-0.357,0.134-1.261,0.525-1.148c-0.018-0.793,0.497-1.789,0.963-2.385c0-1.153,0.925-2.152,1.226-3.09
		c0.09-0.281-0.007-0.654,0.087-0.883c0.088-0.212,0.218,0,0.175-0.088c-0.153-0.314,0.48-1.583,0.7-2.649
		c0.088-0.426,0.465-0.747,0.525-0.971c0.073-0.275-0.259-0.602,0.263-0.707c-0.082-0.274-0.175-1.022,0.175-0.795
		c0.07-0.307-0.13-0.339-0.087-0.618c0.438-0.107,0.515-0.289,0.963-0.177c0.044,0.431-0.342,0.91,0,0.883
		C84.872,19.24,83.796,23.302,83.258,26.165z M71.437,35.172c0.087-1.344,2.08-2.738,1.926-4.503
		c-0.029-0.329-0.347-1.184-0.701-1.413c-1.038-0.67-2.061,0.696-2.54,0.707c0.214,0.514-0.264,0.611-0.525,0.883
		c-0.843,1.385-3.399,5.483-1.139,7.33c0.513-0.278,0.854-0.728,1.489-0.883C70.044,36.182,70.843,35.78,71.437,35.172z"/>
	<path fill-rule="evenodd" clip-rule="evenodd" d="M112.068,45.946c0.117,0.386-0.055,0.757-0.088,1.06
		c-1.339,0.23-1.661,0.061-2.978,0.087c-0.254-0.154-0.413-0.406-0.35-0.882C109.816,45.944,110.932,45.686,112.068,45.946z"/>
</g>
<path fill-rule="evenodd" clip-rule="evenodd" d="M35.149,44.715c0.179,0.391-0.333,0.758-0.525,1.059
	c-5.914-1.676-13.116-0.058-17.864,1.767c-3.251,1.913-6.179,4.587-6.392,9.272c1.856-0.158,4.011-0.831,5.691-0.177
	c1.305,0.509,2.458,1.842,2.364,3.797c-0.082,1.723-1.176,3.134-2.627,3.71c-3.355,0.311-6.026-1.17-6.655-4.151
	c-3.983,3.377-3.683,11.577-2.978,17.31c1.019-0.328,1.962-4.52,3.328-4.151c0.632,0.17,0.443,0.575,0.788,1.148
	c-0.712,1.271-1.721,2.293-2.364,3.796c-0.104,0.243-0.162,0.719-0.263,0.884c-0.071,0.116-0.284,0.046-0.35,0.176
	c-0.444,0.872-0.638,2.956-2.189,2.827c-0.658-0.056-0.763-0.683-1.226-1.325c-0.449-0.621-0.667-1.521-1.226-2.384
	c-0.228-0.353-0.602-0.555-0.788-0.884c-0.147-0.259-0.184-0.707-0.351-1.06c-0.301-0.64-2.082-3.523-0.35-3.709
	c1.457-0.155,1.416,2.922,2.627,3.268c0.627-1.578-0.008-4.571,0.175-7.064C4.051,67.787,4.352,66.7,4.5,65.73
	c0.525-3.433,2.396-6.136,4.203-8.035c0.005-2.668,0.796-4.51,1.839-6.357c0.968-1.717,1.694-2.298,3.153-3.444
	c1.458-1.146,2.408-1.664,4.641-2.296c2.709-0.768,5.613-1.901,9.194-1.942C29.99,43.626,33.171,43.771,35.149,44.715z
	 M14.658,62.641c1.507,0,2.375-1.36,2.365-2.561c-0.025-2.665-4.555-2.803-6.305-1.413C10.577,60.764,12.494,62.641,14.658,62.641z"
	/>
</svg>
