<?xml version="1.0" encoding="utf-8"?>
<!-- Generator: Adobe Illustrator 16.0.0, SVG Export Plug-In . SVG Version: 6.00 Build 0)  -->
<!DOCTYPE svg PUBLIC "-//W3C//DTD SVG 1.1//EN" "http://www.w3.org/Graphics/SVG/1.1/DTD/svg11.dtd">
<svg version="1.1" id="Layer_1" xmlns="http://www.w3.org/2000/svg" xmlns:xlink="http://www.w3.org/1999/xlink" x="0px" y="0px"
	 width="40px" height="40px" viewBox="0 0 40 40" enable-background="new 0 0 40 40" xml:space="preserve">
<g>
	<circle fill-rule="evenodd" clip-rule="evenodd" fill="#A4FF93" cx="20" cy="20" r="19"/>
	<path fill-rule="evenodd" clip-rule="evenodd" fill="#555452" d="M27.997,12.027c1.139-0.237,2.099-0.652,2.997-1.128
		c-0.388,1.17-1.123,1.991-2.062,2.607c1.043-0.112,1.905-0.404,2.724-0.739c-0.647,0.974-1.469,1.774-2.373,2.491
		c0.013,5.978-2.869,10.164-6.732,12.454c-1.903,1.127-4.48,1.877-7.277,1.789c-2.798-0.088-4.987-0.956-6.927-2.102
		c3.034,0.177,5.377-0.665,7.005-2.023c-2.354-0.227-3.755-1.409-4.398-3.346c0.604,0.15,1.489,0.078,2.063-0.04
		c-2.137-0.717-3.657-2.05-3.775-4.787c0.605,0.29,1.238,0.551,2.101,0.584c-0.207-0.269-0.548-0.439-0.817-0.74
		c-1.154-1.286-1.756-3.899-0.623-5.643c2.34,2.616,5.228,4.683,9.885,4.981c-0.555-3.061,1.452-5.645,4.28-5.876
		C25.694,10.377,27.044,11.085,27.997,12.027z"/>
</g>
</svg>
