<?xml version="1.0" encoding="utf-8"?>
<!-- Generator: Adobe Illustrator 16.0.4, SVG Export Plug-In . SVG Version: 6.00 Build 0)  -->
<!DOCTYPE svg PUBLIC "-//W3C//DTD SVG 1.1//EN" "http://www.w3.org/Graphics/SVG/1.1/DTD/svg11.dtd">
<svg version="1.1" id="Layer_1" xmlns="http://www.w3.org/2000/svg" xmlns:xlink="http://www.w3.org/1999/xlink" x="0px" y="0px"
	 width="100px" height="120px" viewBox="0 0 100 120" enable-background="new 0 0 100 120" xml:space="preserve">
<g>
	<path fill="#CED3D1" d="M24.172,66.542c-2.066-3.099-3.817-5.356-6.118-7.529c-0.722-0.686-1.226-1.585-1.897-1.452
		c-0.057,0.009-0.112,0.014-0.168,0.021c-0.35,1.663,1.689,2.685,2.733,3.895c1.129,1.303,2.113,2.744,3.239,3.825
		c4.569,6.964,9.506,15.935,11.007,26.443c0.222,1.544-0.193,5.567,1.759,5.549c0.834-0.8,0.222-2.2,0.105-3.075
		C33.355,83.053,29.138,73.994,24.172,66.542z"/>
	<path opacity="0.75" fill="#C2FFC2" enable-background="new    " d="M50,20.413c-27.614,0-50,22.293-50,49.794
		C0,97.706,22.385,120,50,120c27.613,0,50-22.294,50-49.793C100,42.706,77.613,20.413,50,20.413z M91.825,79.773
		c-0.665,0.074-1.72,1.703-2.712,2.736c-1.133,1.178-2.34,2.122-3.596,2.951c-2.146,1.418-4.438,2.501-6.772,3.85
		c-3.261,1.879-6.677,4.549-10.269,6.277c-0.828,0.396-1.846,0.461-2.617,0.854c-1.834,0.927-4.023,2.713-5.543,3.275
		c-1.529,0.567-3.168,0.926-4.758,1.475c-1.455,0.502-3.143,0.943-4.61,1.285c-2.902,0.676-6.011,1.613-8.996,1.688
		c-2.168,0.056-3.927-0.681-5.926-0.923c-1.279-0.154-2.737,0.537-3.992-0.496c-0.654-0.436,0.503-0.735,0.281-1.736
		c-0.138-0.617-2.111-2.133-2.959-3.013c-1.168-1.216-2.025-2.456-2.835-3.369c-5.679-6.405-12.272-13.255-14.785-22.716
		c-1.034-3.898-1.863-7.875-1.947-12.157c-0.023-1.135,0.632-2.338,0.374-3.62c-0.212-1.056-1.472-1.533-1.258-3.065
		c2.021-0.405,2.61,1.049,4.102,1.332c2.667-0.762,4.988-2.512,7.703-3.729c1.773-0.794,3.933-0.906,5.74-1.773
		c0.561-0.268,0.865-0.784,1.401-1.034c1.656-0.772,3.548-0.954,5.258-1.54c1.299-0.444,2.87-1.104,4.395-1.713
		c1.838-0.735,3.605-1.397,4.739-1.524c3.936-0.44,8.603-2.084,12.475-2.487c3.989-0.413,8.618-0.227,12.933-0.336
		c0.49-0.012,0.701,0.32,1.242,0.347c0.439,0.024,1.11-0.386,1.655-0.386c0.7,0,1.361,0.277,1.914,0.259
		c0.853-0.026,1.731-0.405,2.517-0.33c2.023,0.196,4.282,1.185,6.228,1.904c0.942-0.504,0.759-2.593,2.086-2.315
		c0.804,1.112-0.826,1.544-1.058,2.35c4.133,4.973,6.776,11.978,8.949,19.911c1.477,5.381,3.283,10.758,2.939,15.77
		c0.404,0.875,1.207,1.949,0.923,3.104C93.732,81.748,93.074,79.637,91.825,79.773z"/>
	<g>
		
			<linearGradient id="SVGID_1_" gradientUnits="userSpaceOnUse" x1="364.5801" y1="948.6182" x2="442.5668" y2="942.1439" gradientTransform="matrix(-0.9771 0.213 -0.213 -0.9771 638.0201 865.0266)">
			<stop  offset="0.0056" style="stop-color:#FACB0D"/>
			<stop  offset="0.2528" style="stop-color:#FFF9D3"/>
			<stop  offset="0.2949" style="stop-color:#F8EDC1"/>
			<stop  offset="0.3786" style="stop-color:#EBD498"/>
			<stop  offset="0.4947" style="stop-color:#D7B25E"/>
			<stop  offset="0.5955" style="stop-color:#C7952C"/>
			<stop  offset="0.8079" style="stop-color:#E6C975"/>
			<stop  offset="0.8708" style="stop-color:#F1DB8D"/>
			<stop  offset="1" style="stop-color:#FFF9D3"/>
		</linearGradient>
		<path fill="url(#SVGID_1_)" d="M67.896,14.189c0,0-4.5,11.441-14.901,11.958C42.6,26.662,38.318,7.091,38.318,7.091
			s1.864,20.527-5.387,23.413c-7.253,2.881-19.836-6.596-19.836-6.596L29.196,47.45c0,0,11.79,0.897,18.479-0.555
			c6.688-1.453,18.401-7.013,18.401-7.013L67.896,14.189z"/>
		
			<linearGradient id="SVGID_2_" gradientUnits="userSpaceOnUse" x1="362.7031" y1="926.4014" x2="440.6923" y2="919.9269" gradientTransform="matrix(-0.9771 0.213 -0.213 -0.9771 638.0201 865.0266)">
			<stop  offset="0.0056" style="stop-color:#FACB0D"/>
			<stop  offset="0.2528" style="stop-color:#FFF9D3"/>
			<stop  offset="0.2949" style="stop-color:#F8EDC1"/>
			<stop  offset="0.3786" style="stop-color:#EBD498"/>
			<stop  offset="0.4947" style="stop-color:#D7B25E"/>
			<stop  offset="0.5955" style="stop-color:#C7952C"/>
			<stop  offset="0.8079" style="stop-color:#E6C975"/>
			<stop  offset="0.8708" style="stop-color:#F1DB8D"/>
			<stop  offset="1" style="stop-color:#FFF9D3"/>
		</linearGradient>
		<path fill="url(#SVGID_2_)" d="M65.834,41.785c0,0-7.52,4.468-16.724,6.466c-9.207,1.998-18.787,1.244-18.787,1.244
			s0.953,5.21,12.46,3.963c14.292-1.553,16.683-3.572,19.271-5.117c2.588-1.543,3.467-3.421,3.467-3.421
			S67.102,42.328,65.834,41.785z"/>
		
			<linearGradient id="SVGID_3_" gradientUnits="userSpaceOnUse" x1="365.8711" y1="963.7334" x2="443.8206" y2="957.2622" gradientTransform="matrix(-0.9771 0.213 -0.213 -0.9771 638.0201 865.0266)">
			<stop  offset="0.0056" style="stop-color:#FACB0D"/>
			<stop  offset="0.2528" style="stop-color:#FFF9D3"/>
			<stop  offset="0.2949" style="stop-color:#F8EDC1"/>
			<stop  offset="0.3786" style="stop-color:#EBD498"/>
			<stop  offset="0.4947" style="stop-color:#D7B25E"/>
			<stop  offset="0.5955" style="stop-color:#C7952C"/>
			<stop  offset="0.8079" style="stop-color:#E6C975"/>
			<stop  offset="0.8708" style="stop-color:#F1DB8D"/>
			<stop  offset="1" style="stop-color:#FFF9D3"/>
		</linearGradient>
		<path fill="url(#SVGID_3_)" d="M7.261,21.903c0.316,1.445,1.751,2.361,3.205,2.048c1.451-0.316,2.373-1.745,2.056-3.193
			c-0.316-1.446-1.751-2.363-3.205-2.048C7.864,19.023,6.942,20.456,7.261,21.903z"/>
		
			<linearGradient id="SVGID_4_" gradientUnits="userSpaceOnUse" x1="366.667" y1="973.4121" x2="444.6357" y2="966.9393" gradientTransform="matrix(-0.9771 0.213 -0.213 -0.9771 638.0201 865.0266)">
			<stop  offset="0.0056" style="stop-color:#FACB0D"/>
			<stop  offset="0.2528" style="stop-color:#FFF9D3"/>
			<stop  offset="0.2949" style="stop-color:#F8EDC1"/>
			<stop  offset="0.3786" style="stop-color:#EBD498"/>
			<stop  offset="0.4947" style="stop-color:#D7B25E"/>
			<stop  offset="0.5955" style="stop-color:#C7952C"/>
			<stop  offset="0.8079" style="stop-color:#E6C975"/>
			<stop  offset="0.8708" style="stop-color:#F1DB8D"/>
			<stop  offset="1" style="stop-color:#FFF9D3"/>
		</linearGradient>
		<path fill="url(#SVGID_4_)" d="M34.373,3.42c0.332,1.52,1.839,2.486,3.37,2.154c1.525-0.333,2.495-1.836,2.162-3.355
			c-0.331-1.522-1.841-2.486-3.368-2.155C35.009,0.396,34.04,1.9,34.373,3.42z"/>
		
			<linearGradient id="SVGID_5_" gradientUnits="userSpaceOnUse" x1="365.3623" y1="958.0146" x2="443.3646" y2="951.539" gradientTransform="matrix(-0.9771 0.213 -0.213 -0.9771 638.0201 865.0266)">
			<stop  offset="0.0056" style="stop-color:#FACB0D"/>
			<stop  offset="0.2528" style="stop-color:#FFF9D3"/>
			<stop  offset="0.2949" style="stop-color:#F8EDC1"/>
			<stop  offset="0.3786" style="stop-color:#EBD498"/>
			<stop  offset="0.4947" style="stop-color:#D7B25E"/>
			<stop  offset="0.5955" style="stop-color:#C7952C"/>
			<stop  offset="0.8079" style="stop-color:#E6C975"/>
			<stop  offset="0.8708" style="stop-color:#F1DB8D"/>
			<stop  offset="1" style="stop-color:#FFF9D3"/>
		</linearGradient>
		<path fill="url(#SVGID_5_)" d="M65.904,9.918c0.334,1.521,1.84,2.488,3.367,2.156s2.498-1.836,2.168-3.357
			c-0.336-1.52-1.844-2.486-3.373-2.153C66.539,6.894,65.57,8.398,65.904,9.918z"/>
	</g>
</g>
</svg>
