<?xml version="1.0" encoding="utf-8"?>
<!-- Generator: Adobe Illustrator 16.0.4, SVG Export Plug-In . SVG Version: 6.00 Build 0)  -->
<!DOCTYPE svg PUBLIC "-//W3C//DTD SVG 1.1//EN" "http://www.w3.org/Graphics/SVG/1.1/DTD/svg11.dtd">
<svg version="1.1" id="Layer_1" xmlns="http://www.w3.org/2000/svg" xmlns:xlink="http://www.w3.org/1999/xlink" x="0px" y="0px"
	 width="100px" height="100px" viewBox="0 0 100 100" enable-background="new 0 0 100 100" xml:space="preserve">
<path opacity="0.75" fill="#090D0C" d="M49.78,0C22.167,0.124-0.12,22.607,0.001,50.221C0.122,77.832,22.604,100.119,50.22,100
	c27.613-0.121,49.901-22.604,49.779-50.218C99.879,22.171,77.394-0.119,49.78,0z M56.623,20.629
	c-0.04,0.202-0.073,0.346-0.104,0.464c2.295,11.1,1.279,21.089-0.143,27.921c0.08,0.005,0.143-0.003,0.228,0.008
	c-0.085,0.038-0.16,0.035-0.241,0.061c-1.206,5.76-2.688,9.263-2.688,9.263c10.474-21.682,4.498,7.195-13.094,14.468
	c-0.636,6.693,6.318,14.725,11.261,18.797c-7.617-1.385-10.702-9.878-14.568-17.76c-1.325-0.894-9.618-6.937-10.99-18.659
	c-0.057-0.068-0.113-0.142-0.166-0.204c-2.61-16.562,8.751-41.771,34.97-47.438C58.421,11.611,56.008,15.742,56.623,20.629z"/>
</svg>
