<?xml version="1.0" encoding="utf-8"?>
<!-- Generator: Adobe Illustrator 16.0.4, SVG Export Plug-In . SVG Version: 6.00 Build 0)  -->
<!DOCTYPE svg PUBLIC "-//W3C//DTD SVG 1.1//EN" "http://www.w3.org/Graphics/SVG/1.1/DTD/svg11.dtd">
<svg version="1.1" id="Layer_1" xmlns="http://www.w3.org/2000/svg" xmlns:xlink="http://www.w3.org/1999/xlink" x="0px" y="0px"
	 width="100px" height="100px" viewBox="0 0 100 100" enable-background="new 0 0 100 100" xml:space="preserve">
<g opacity="0.75">
	<path fill="#C2FFC2" d="M47.3,24.62c-4.541,0-9.083,0-13.625,0c2.122,4.087,4.329,8.097,6.556,12.083
		C42.615,32.701,44.939,28.642,47.3,24.62z"/>
	<path fill="#C2FFC2" d="M31.104,26.033c-2.241,3.539-5.06,7.327-7.327,10.67c-0.272,0.401-0.739,0.898-0.644,1.416
		c4.883,0,9.769,0,14.654,0C35.626,34.023,33.579,29.815,31.104,26.033z"/>
	<path fill="#C2FFC2" d="M66.582,24.62c-4.499,0.086-9.339-0.171-13.625,0.129c2.841,4.058,5.533,8.262,8.355,12.34
		C63.018,32.88,64.816,28.765,66.582,24.62z"/>
	<path fill="#C2FFC2" d="M42.799,38.119c5.273,0,10.544,0,15.812,0c-2.76-4.396-5.654-8.657-8.611-12.857
		c-2.119,3.728-4.456,7.848-6.555,11.441C43.191,37.137,42.63,37.56,42.799,38.119z"/>
	<path fill="#C2FFC2" d="M22.877,41.073c7.837,9.968,15.404,21.215,23.267,31.106c0.142,0.18,0.188,0.83,0.645,0.645
		c-2.619-10.536-5.167-21.145-7.586-31.878C33.804,41.03,28.063,40.773,22.877,41.073z"/>
	<path fill="#C2FFC2" d="M41.902,40.946c2.773,11.365,5.362,22.916,8.227,34.193c3.266-11.347,6.529-22.693,9.643-34.193
		C53.812,40.946,47.857,40.946,41.902,40.946z"/>
	<path fill="#C2FFC2" d="M63.754,38.119c4.414,0,8.828,0,13.241,0c-2.377-3.838-5.386-8.158-8.226-11.958
		C67.216,30.268,65.432,34.134,63.754,38.119z"/>
	<path fill="#C2FFC2" d="M50,0.001C22.387,0.001,0,22.387,0,50c0,27.616,22.387,49.999,50,49.999c27.613,0,50-22.383,50-49.999
		C100,22.387,77.613,0.001,50,0.001z M82.908,39.789C71.871,54.375,61.036,69.163,50.129,83.88
		C38.835,69.464,28.262,54.33,17.093,39.789c0-0.085,0-0.171,0-0.257c4.415-6.169,8.67-12.497,12.981-18.767
		c13.283,0,26.568,0,39.852,0c4.309,6.272,8.561,12.604,12.982,18.767C82.908,39.617,82.908,39.703,82.908,39.789z"/>
	<path fill="#C2FFC2" d="M62.727,40.946c-3.069,10.255-5.887,20.767-8.869,31.109c7.178-9.195,14.822-19.687,21.854-29.311
		c0.475-0.651,1.328-1.239,1.155-1.798C72.152,40.946,67.439,40.946,62.727,40.946z"/>
</g>
</svg>
