<?xml version="1.0" encoding="utf-8"?>
<!-- Generator: Adobe Illustrator 16.0.4, SVG Export Plug-In . SVG Version: 6.00 Build 0)  -->
<!DOCTYPE svg PUBLIC "-//W3C//DTD SVG 1.1//EN" "http://www.w3.org/Graphics/SVG/1.1/DTD/svg11.dtd">
<svg version="1.1" id="Layer_1" xmlns="http://www.w3.org/2000/svg" xmlns:xlink="http://www.w3.org/1999/xlink" x="0px" y="0px"
	 width="32px" height="62px" viewBox="0 0 32 62" enable-background="new 0 0 32 62" xml:space="preserve">
<path fill="#FFFFFF" d="M0.91,62c-0.23,0-0.433-0.087-0.607-0.259c-0.404-0.375-0.404-0.764,0-1.168l29.615-29.53L0.303,1.47
	c-0.404-0.375-0.404-0.763,0-1.167c0.405-0.403,0.795-0.403,1.171,0l30.224,30.136c0.404,0.403,0.404,0.792,0,1.166L1.474,61.741
	C1.33,61.913,1.142,62,0.91,62z"/>
</svg>
