<?xml version="1.0" encoding="utf-8"?>
<!-- Generator: Adobe Illustrator 16.0.4, SVG Export Plug-In . SVG Version: 6.00 Build 0)  -->
<!DOCTYPE svg PUBLIC "-//W3C//DTD SVG 1.1//EN" "http://www.w3.org/Graphics/SVG/1.1/DTD/svg11.dtd">
<svg version="1.1" id="Layer_1" xmlns="http://www.w3.org/2000/svg" xmlns:xlink="http://www.w3.org/1999/xlink" x="0px" y="0px"
	 width="100px" height="100px" viewBox="0 0 100 100" enable-background="new 0 0 100 100" xml:space="preserve">
<path opacity="0.75" fill="#090D0C" d="M37.477,93.728c-0.665-3.682-4.412-7.703-5.661-10.955c-2.215-5.76-1.847-15.473-3.36-21.911
	c-1.738-7.405-5.114-12.685-6.366-19.039c-0.276-1.402-1.259-9.367,1.945-9.339c3.262,0.028,3.139,7.261,4.244,10.058
	c0.58,1.466,1.713,2.614,2.478,3.771c0.839,1.275,1.393,3.01,3.005,3.234c3.242-2.466,0.805-7.46-0.177-11.496
	c-0.511-2.1-0.65-4.477-0.885-6.823c-0.358-3.617-3.253-12.572,1.415-12.932c4.741-0.364,4.389,9.539,5.13,12.751
	c0.54,2.333,1.12,4.906,1.592,7.365c0.462,2.411,0.601,5.569,2.83,6.286c2.397-3.339,0.261-8.656,0-13.651
	c-0.146-2.786,0.445-5.828,0.53-8.979c0.122-4.48-0.552-9.236,2.476-10.418c0.531,0,1.062,0,1.592,0
	c4.101,1.018,2.767,9.909,3.185,16.706c0.154,2.524,0.299,5.52,0.53,8.618c0.204,2.727,0.27,6.695,1.945,7.005
	c2.521,0.466,3.053-3.856,3.537-5.927c1.289-5.5,1.517-10.577,2.654-16.344c0.484-2.46,1.267-5.861,3.537-5.925
	c3.608-0.103,3.279,6.172,2.829,10.415c-1.077,10.138-2.713,20.292-2.652,31.253c0.009,2.146,0.042,4.877,1.414,5.207
	c2.601,0.627,3.831-3.497,4.774-4.67c2.105-2.619,5.733-5.223,10.084-6.824c2.989-1.1,6.768-1.515,7.25,0.898
	c0.52,2.605-2.623,4.089-4.245,5.566c-0.999,0.912-2.001,2.371-3.185,3.594c-1.198,1.234-2.721,2.41-3.359,3.41
	c-1.561,2.451-1.964,6.119-3.539,9.342c-0.855,1.75-2.651,3.313-3.537,5.208c-1.271,2.723-1.862,5.576-3.182,7.542
	c-0.904,1.35-3.085,2.518-3.537,3.771c-0.693,1.922-0.305,4.313-0.354,6.465c-0.025,0.986-0.089,1.993-0.139,3.04
	C83.953,94.444,100,74.514,100,50.774C100,22.731,77.613,0,50,0S0,22.731,0,50.774c0,23.548,15.79,43.345,37.2,49.087
	C37.546,97.932,37.842,95.758,37.477,93.728z"/>
</svg>
