<?xml version="1.0" encoding="utf-8"?>
<!-- Generator: Adobe Illustrator 16.0.4, SVG Export Plug-In . SVG Version: 6.00 Build 0)  -->
<!DOCTYPE svg PUBLIC "-//W3C//DTD SVG 1.1//EN" "http://www.w3.org/Graphics/SVG/1.1/DTD/svg11.dtd">
<svg version="1.1" id="Layer_1" xmlns="http://www.w3.org/2000/svg" xmlns:xlink="http://www.w3.org/1999/xlink" x="0px" y="0px"
	 width="100px" height="100px" viewBox="0 0 100 100" enable-background="new 0 0 100 100" xml:space="preserve">
<g opacity="0.75">
	<path fill="#C2FFC2" d="M77.871,60.465c-5.891-1.781-5.458,6.258-1.174,6.04C79.408,66.366,80.924,61.779,77.871,60.465z"/>
	<path fill="#C2FFC2" d="M82.566,36.654c-5.198,0-10.398,0-15.598,0c0,2.066,0,4.135,0,6.202c2.403,0,4.809,0,7.213,0
		c1.641,1.547,3.547,2.826,5.197,4.363c2.404,0,4.809,0,7.213,0C85.268,43.501,84.223,40.224,82.566,36.654z"/>
	<path fill="#C2FFC2" d="M25.375,62.143c-0.527,1.828,0.51,3.381,2.011,4.027c2.532,0.298,3.312-1.158,3.858-2.852
		C31.361,60.041,26.211,59.238,25.375,62.143z"/>
	<path fill="#C2FFC2" d="M50,0C22.387,0,0,22.385,0,50.001C0,77.614,22.387,100,50,100c27.613,0,50-22.386,50-49.999
		C100,22.385,77.613,0,50,0z M19.672,63.484c-2.461,0-4.92,0-7.379,0c0.055-0.615-0.144-1.483,0.167-1.844
		C14.84,61.873,20.86,59.982,19.672,63.484z M22.356,66.505c-2.628-4.864,1.497-10.761,7.042-9.728
		c3.112,0.578,5.543,2.963,5.536,6.541C34.923,70.139,25.455,72.236,22.356,66.505z M64.119,64.325
		c-9.17-0.111-18.785,0.222-27.676-0.169c-0.146-1.198,0.014-1.902,0.504-2.014c0.259-0.059,0.574,0.018,0.839,0
		c8.388-0.447,18.698,0.342,25.995,0C64.334,62.432,64.049,63.557,64.119,64.325z M63.95,61.807c-9.169,0-18.338,0-27.507,0
		c-1.08-2.639-2.59-5.24-5.366-6.203c-5.096-1.77-9.633,1.42-10.901,5.369c-2.349,0-4.696,0-7.046,0
		c-0.512-2.119,0.458-5.393-0.501-7.55c0,0.058,0,0.11,0,0.166c0.147-0.078-1.213,0.25-1.34-0.166
		c-0.779-7.857-0.118-17.004-0.338-25.156c17.556,0,35.109,0,52.666,0C64.165,38.897,64.352,50.783,63.95,61.807z M67.641,63.484
		c-0.839,0-1.679,0-2.516,0c-0.146-2.608-0.622-3,2.516-2.683C67.641,61.695,67.641,62.592,67.641,63.484z M69.15,62.982
		c0.791-4.407,3.693-7.598,9.392-6.543c3.142,1.166,5.179,3.433,5.199,7.717C82.277,72.952,69.064,71.781,69.15,62.982z
		 M85.251,60.301c-1.321-3.9-4.582-7.557-9.896-6.878c-3.808,0.486-6.263,3.101-7.379,6.54c-1.85,0.078-1.802,0.247-3.021,0
		c-0.171-8.001-0.497-17.594,0.168-25.159c5.614-0.774,12.534-0.113,18.448-0.335c0.988,1.87,1.686,3.981,2.685,6.207
		c0.888,1.98,2.517,3.959,2.851,6.041c0.679,4.204-0.496,8.379,0,13.247C87.88,60.132,85.941,59.596,85.251,60.301z M85.922,63.484
		c0.193-0.812-0.406-2.418,0.336-2.683c0.48-0.144,2.021,0.097,3.018,0c0.271,0.57,0.271,2.114,0,2.683
		C88.159,63.484,87.04,63.484,85.922,63.484z"/>
</g>
</svg>
