<?xml version="1.0" encoding="utf-8"?>
<!-- Generator: Adobe Illustrator 16.0.0, SVG Export Plug-In . SVG Version: 6.00 Build 0)  -->
<!DOCTYPE svg PUBLIC "-//W3C//DTD SVG 1.1//EN" "http://www.w3.org/Graphics/SVG/1.1/DTD/svg11.dtd">
<svg version="1.1" id="Layer_1" xmlns="http://www.w3.org/2000/svg" xmlns:xlink="http://www.w3.org/1999/xlink" x="0px" y="0px"
	 width="190px" height="28px" viewBox="0 0 190 28" enable-background="new 0 0 190 28" xml:space="preserve">
<g>
	<path fill-rule="evenodd" clip-rule="evenodd" fill="#706F6F" d="M182.873,0.886c0.656,1.788-0.576,5.5,0.859,6.486
		c1.121-0.179,2.014-0.677,3.254-1.228c0.801-0.351,2.822-1.111,3.002,0.174c0.105,0.754-0.525,1.096-1.629,1.492
		c-0.693,0.25-1.572,0.783-2.053,0.964c-1.32,0.493-2.795,0.622-3.174,1.666c-0.424,1.17-0.152,3.215-0.088,4.908
		c0.031,0.779-0.145,1.893,0.088,2.543c0.197,0.553,1.137,1.098,1.969,1.402c0.926,0.334,1.807,0.725,2.4,0.963
		c0.873,0.35,2.645,0.449,2.486,1.752c-0.166,1.385-2.357,0.5-3.084,0.178c-0.436-0.197-2.438-1.396-3.172-1.227
		c-0.934,0.213-0.688,2.148-0.688,2.98c0,0.977,0.287,2.83-0.172,3.506c-0.609,0.893-4.783,0.438-6.428,0.438
		c-5.979,0-11.127,0-17.139,0c-0.986,0-2.549,0.238-2.998-0.438c-1.023-1.525,0.893-5.492-0.859-6.486
		c-0.941,0.094-2.072,0.773-3.174,1.227c-0.824,0.338-2.744,1.098-2.998-0.088c-0.229-1.066,0.891-1.322,2.23-1.842
		c1.055-0.41,4.174-1.346,4.541-2.279c0.326-0.832,0.084-2.326,0.084-3.77c0-1.284,0.219-2.729-0.084-3.681
		c-0.396-1.238-2.301-1.421-3.516-1.926c-0.836-0.351-3.363-1.005-3.256-2.191c0.131-1.478,2.365-0.417,2.914-0.178
		c0.939,0.414,2.564,1.272,3.258,1.054c1.572-0.499,0.033-4.774,0.859-6.222c0.682-1.21,5.396-0.627,7.541-0.527
		c4.158,0.194,8.641-0.088,12.938-0.088C178.906,0.449,181.066,0.137,182.873,0.886z M158.961,8.686
		c2.238,1.831,2.928-0.542,4.115-1.663c0.764-0.724,2.133-1.643,3.172-2.016c3.812-1.369,8,0.191,9.939,2.105
		c0.703,0.691,1.264,2.203,2.318,2.276c0.502,0.035,1.494-0.31,1.799-0.963c0.617-1.339,0.266-4.927-0.26-5.347
		c-0.812-0.652-3.828-0.168-5.396-0.176c-5.777-0.026-10.523-0.41-15.602,0.176C158.404,4.323,158.457,7.321,158.961,8.686z
		 M167.191,7.023c-1.027,0.357-3.721,1.892-3.43,3.33c0.121,0.6,1.898,1.271,2.658,1.579c0.494,0.203,1.104,0.312,1.627,0.525
		c1.641,0.669,2.059,0.355,3.43-0.175c0.906-0.351,3.621-0.974,3.943-1.755s-0.428-1.687-1.113-2.276
		c-1.217-1.042-3.158-1.581-5.062-1.492C168.441,6.799,167.787,6.813,167.191,7.023z M159.307,17.014
		c0.893,0.09,0.805-1.367,0.768-2.279c-0.062-1.669,0.422-3.653-1.027-3.33C158.482,12.245,158.326,16.918,159.307,17.014z
		 M179.875,16.928c0.781-0.096,0.514-1.602,0.6-2.98c0.076-1.209,0.236-3.176-1.199-2.453
		C179.117,12.443,178.492,17.098,179.875,16.928z M162.391,15c0.619,0.965,3.172,0.293,3.084-0.877
		c-0.061-0.874-1.553-1.253-2.225-1.141C162.232,13.154,161.867,14.18,162.391,15z M173.789,14.033
		c-0.227,1.529,2.689,1.676,3.09,0.878c0.627-1.276-0.471-2.016-1.547-1.841C174.281,13.242,173.889,13.378,173.789,14.033z
		 M166.162,16.576c-0.756,0.328-2.246,0.686-2.4,1.402c-0.203,0.953,1.148,2.082,1.543,2.367c2.289,1.645,6.248,1.668,8.568,0
		c0.574-0.41,1.748-1.439,1.547-2.367c-0.109-0.49-1.811-1.242-2.66-1.578c-1.133-0.447-2.562-1.088-3.682-0.875
		C168.25,15.684,167.258,16.104,166.162,16.576z M180.219,19.732c-0.275-0.408-1.055-0.824-1.629-0.789
		c-0.805,0.047-1.348,1.062-1.887,1.664c-0.58,0.654-1.334,1.393-1.885,1.756c-3.023,1.98-7.662,1.945-10.541,0
		c-0.287-0.531-0.795-0.656-1.201-1.055c-0.902-0.889-1.217-2.098-2.57-2.365c-0.355-0.07-1.516,0.5-1.713,0.961
		c-0.289,0.682-0.082,1.688-0.088,2.545c-0.008,1.092-0.264,2.32,0.428,2.803c0.59,0.412,2.023,0.174,3.088,0.178
		c5.562,0.012,12.453,0.375,17.824-0.178C180.533,24.318,180.873,20.705,180.219,19.732z"/>
	<path fill-rule="evenodd" clip-rule="evenodd" fill="#706F6F" d="M135.652,9.868c-2.02,1.402-4.572,2.057-6.928,2.936
		c-0.377,0.139-0.83,0.503-1.268,0.692c-0.938,0.402-3.525,0.872-3.717,1.9c-0.154,0.814,0.678,1.463,0.932,1.9
		c0.674,1.174,1.518,3.578,2.697,4.32c0.289,0.18,0.82,0.23,1.27,0.43c0.389,0.176,0.736,0.5,1.016,0.605
		c0.545,0.213,1.176,0.262,1.771,0.521c0.953,0.406,4.17,1.324,4.227,2.416c0.086,1.748-2.785,0.676-3.719,0.26
		c-0.789-0.352-1.492-1.02-2.279-0.52c-0.256,0.596,0.59,1.029,0.336,1.73c-0.305,0.826-2.318,0.605-3.547,0.605
		c-8.307,0-16.35,0-24.838,0c-1.143,0-3.326,0.172-3.631-0.521c-0.264-0.588,0.473-1.182,0.34-1.725
		c-1.328-0.84-3.37,1.297-4.901,1.207c-0.537-0.029-1.169-0.484-1.187-0.949c-0.036-1.043,2.104-1.553,3.043-1.902
		c0.491-0.182,0.892-0.498,1.353-0.691c1.863-0.779,3.977-0.99,4.982-2.592c0.26-0.412,0.412-0.877,0.674-1.295
		c0.246-0.383,0.453-0.789,0.68-1.209c0.285-0.531,1.35-1.668,1.182-2.592c-0.166-0.927-2.082-1.35-3.127-1.727
		c-0.504-0.187-1.043-0.554-1.605-0.778c-0.643-0.256-1.324-0.311-1.859-0.517c-0.297-0.12-0.73-0.519-1.18-0.693
		c-0.709-0.273-1.528-0.416-2.28-0.778c-0.643-0.309-1.773-0.662-1.862-1.211c-0.075-0.486,0.466-1.309,1.1-1.381
		c0.677-0.075,1.332,0.589,2.029,0.866c1.275,0.504,2.71,0.906,4.052,1.38c0.582,0.208,1.064,0.663,1.605,0.865
		c0.568,0.21,1.145,0.288,1.691,0.516c0.682,0.29,1.738,1.066,2.787,0.866c0.898-0.168,1.477-1.894,2.197-3.023
		c0.695-1.087,1.357-2.112,1.941-3.195c0.941-1.749,1.869-3.22,2.871-4.924c0.48-0.817,0.578-1.804,1.691-1.641
		c0.811,0.113,1.543,2.325,2.029,3.194c0.164,0.294,0.486,0.475,0.678,0.777c0.564,0.912,0.898,1.756,1.516,2.85
		c0.822,1.464,1.6,2.879,2.619,4.408c0.65,0.974,0.654,1.68,2.281,1.468c0.555-0.071,1.076-0.469,1.773-0.78
		c0.609-0.267,1.357-0.374,1.943-0.602c1.455-0.572,3.252-1.413,4.9-1.985C133.578,8.776,135.641,7.321,135.652,9.868z
		 M112.502,6.585c-0.148,0.261-0.482,0.453-0.672,0.775c-0.479,0.805-0.883,1.88-1.436,2.852c-0.137,0.238-0.469,0.428-0.68,0.779
		c-0.219,0.362-0.303,0.877-0.506,1.21c-0.373,0.599-0.75,0.73-0.762,1.208c-0.02,1.179,1.482,1.343,2.537,1.728
		c0.994,0.365,1.914,1.1,3.209,1.037c0.986-0.047,1.719-0.543,2.447-0.865c0.844-0.369,1.693-0.467,2.451-0.951
		c0.697-1.14,0.053-1.581-0.508-2.506c-0.238-0.395-0.279-0.799-0.418-1.034c-0.197-0.329-0.557-0.606-0.764-0.95
		c-1.012-1.698-2.002-3.628-2.871-5.013C112.973,4.57,113.018,5.703,112.502,6.585z M107.184,19.197
		c0.422-0.148,2.572-1.086,2.617-1.469c0.039-0.387-1.084-1.301-1.605-1.471c-1.535-0.492-1.844,0.77-2.279,1.559
		c-0.215,0.389-0.73,0.719-0.59,1.293C105.684,19.498,106.627,19.391,107.184,19.197z M118.08,17.729
		c0.631,0.469,1.725,1.135,2.619,1.469c0.547,0.205,1.369,0.338,1.859-0.088c-0.133-1.33-0.939-1.977-1.523-2.852
		C119.467,16.152,118.633,16.795,118.08,17.729z M110.053,20.32c-0.543,0.203-1.211,0.275-1.771,0.518
		c-0.578,0.25-1.049,0.596-1.607,0.779c-1.107,0.359-2.594,0.773-3.463,1.297c-0.391,0.234-1.389,1.15-1.268,1.725
		c0.219,1.039,2.533,0.553,3.717,0.604c5.295,0.246,12.578,0.088,17.996,0.088c0.832,0,2.002-0.1,2.199-0.516
		c0.193-0.428-0.475-1.475-0.932-1.816c-0.91-0.666-2.652-0.943-4.225-1.557c-0.504-0.191-0.924-0.59-1.438-0.773
		c-0.805-0.301-1.594-0.502-2.361-0.867c-1.094-0.512-2.428-0.869-3.553-0.691C112.055,19.32,111.264,19.869,110.053,20.32z"/>
	<g>
		<g>
			<path fill-rule="evenodd" clip-rule="evenodd" fill="#706F6F" d="M25.315,10.496c-0.107-2.572-0.239-5.745-1.433-7.455
				c-4.56-0.13-10.33-0.073-15.584-0.073c-1.379,0-4.154,0.39-4.929-0.22C2.861,2.352,2.881,0.865,3.296,0.264
				C9.954-0.01,15.561,0.115,22.1,0.115c1.316,0,2.986-0.258,3.715,0c1.069,0.379,1.029,1.586,1.216,3.292
				c0.174,1.575,0.745,3.226,0.929,4.897c0.054,0.517-0.01,1.261,0.07,1.83c0.124,0.869,0.456,2.037,0.645,3.215
				c0.202,1.257,0.22,2.544,0.355,3.437c0.087,0.57,0.403,1.285,0.501,1.826c0.249,1.373,0.251,3.062,0.5,4.68
				c0.152,1.004,1.038,3.184,0.501,3.947c-0.398,0.572-2.213,0.369-3.433,0.369c-8.026,0-15.42,0-23.52,0
				c-1.133,0-3.012,0.324-3.432-0.295c-0.401-0.598,0.115-2.566,0.286-3.289c0.111-0.463,0.366-0.908,0.503-1.389
				c0.17-0.625,0.179-1.297,0.356-1.902c0.158-0.539,0.529-0.988,0.713-1.535c0.81-2.383,1.889-4.87,3.647-6.362
				c0.234-0.199,0.605-0.276,0.93-0.509c0.299-0.217,0.46-0.536,0.786-0.658c0.623-0.237,2.171-0.594,3.003-0.659
				c3.518-0.277,7.979,0,11.727,0C23.214,11.009,24.559,11.362,25.315,10.496z M7.801,14.591C7.268,15,6.539,16.027,6.086,16.785
				c-1.062,1.756-1.721,3.766-2.29,5.92c-0.168,0.641-0.43,1.115-0.358,1.463c0.207,0.992,2.005,0.877,3.502,0.877
				c6.207,0,11.624-0.117,17.443,0c1.65,0.035,2.979,0.203,3.289-0.953c0.261-0.963-0.37-2.002-0.5-2.848
				c-0.069-0.447,0.008-0.973-0.072-1.537c-0.13-0.924-0.483-1.949-0.643-2.922c-0.112-0.691-0.264-2.52-0.786-2.852
				c-0.67-0.43-2.869-0.147-3.86-0.147c-1.372,0-2.88,0-4.077,0c-2.522,0-6.014-0.367-8.216,0.074
				C8.912,13.982,8.152,14.318,7.801,14.591z"/>
			<path fill-rule="evenodd" clip-rule="evenodd" fill="#706F6F" d="M14.806,17.59c2.949-0.586,2.633,3.953,0.214,3.654
				C13.655,21.078,12.721,18.002,14.806,17.59z"/>
		</g>
	</g>
	<g>
		<g>
			<path fill-rule="evenodd" clip-rule="evenodd" fill="#706F6F" d="M80.283,0.433c0.423,0.905-0.142,1.802-0.307,2.729
				c-0.164,0.935-0.15,1.968-0.381,2.887c-0.139,0.554-0.469,1.032-0.609,1.562c-0.228,0.853-0.205,1.731-0.457,2.497
				c-0.145,0.438-0.468,0.811-0.611,1.248c-0.197,0.594-0.172,1.211-0.381,1.795c-0.15,0.407-0.445,0.77-0.615,1.171
				c-0.163,0.407-0.197,0.924-0.378,1.325c-0.139,0.307-0.493,0.561-0.686,0.939c-0.19,0.363-0.268,0.811-0.459,1.168
				c-0.766,1.432-2.091,3.133-3.356,3.59c-1.124,0.406-3.203,0.154-4.733,0.154c-3.63,0-6.19,0-9.765,0
				c-1.543,0-3.563,0.234-4.73-0.154c-1.16-0.383-2.092-1.695-2.822-2.73c-0.208-0.291-0.489-0.484-0.612-0.703
				c-0.192-0.332-0.193-0.773-0.382-1.17c-0.159-0.334-0.525-0.604-0.687-0.936c-0.188-0.389-0.209-0.905-0.383-1.327
				c-0.193-0.48-0.553-0.893-0.684-1.25c-0.2-0.534-0.203-1.15-0.382-1.717c-0.302-0.939-0.65-1.717-0.838-2.729
				c-0.18-0.956-0.608-1.769-0.841-2.654c-0.253-0.947-0.217-1.964-0.38-2.886c-0.166-0.925-0.695-1.781-0.383-2.729
				c0.39-0.348,1.006-0.704,1.83-0.394c0.495,0.187,0.781,0.977,1.226,1.249c0.406,0.253,1.532,0.462,2.133,0.859
				c0.887,0.585,1.587,2.123,3.206,1.872c1.154-0.18,1.869-1.521,2.825-2.026c1.05-0.561,2.606-0.671,3.812,0.074
				c0.75,0.467,1.618,2.102,2.979,1.953c0.928-0.103,1.768-0.808,2.441-1.404c0.497-0.443,1.578-1.219,2.592-1.17
				c0.503,0.022,1.25,0.319,1.68,0.548c1.289,0.686,1.85,2.396,3.663,1.949c0.912-0.226,1.523-1.217,2.364-1.794
				c0.577-0.395,1.679-0.626,2.062-0.859c0.509-0.312,0.831-1.076,1.297-1.249C79.072-0.082,79.763,0.024,80.283,0.433z
				 M66.167,4.254c-1.103,0.434-1.679,1.706-2.825,2.03c-2.535,0.723-3.463-1.702-5.034-2.106c-1.742-0.449-2.556,0.454-3.434,1.092
				c-0.435,0.312-0.687,0.738-1.222,0.936c-1.796,0.66-2.76-0.3-3.739-1.014c-0.588-0.432-1.082-1.198-1.678-0.859
				c-1.06,0.602,0.579,3.979,0.69,4.368c0.157,0.583,0.186,1.231,0.377,1.798c0.186,0.546,0.518,0.925,0.689,1.402
				c0.168,0.487,0.166,1.032,0.38,1.562c0.147,0.361,0.499,0.729,0.688,1.169c0.402,0.962,0.594,1.421,1.064,2.187
				c0.768,1.236,1.28,1.832,2.979,1.951c2.209,0.15,4.784,0,7.402,0c2.654,0,5.219,0.229,7.401,0
				c1.244-0.133,1.899-0.555,2.519-1.561c0.152-0.254,0.208-0.592,0.38-0.861c0.182-0.287,0.485-0.441,0.609-0.703
				c0.19-0.398,0.151-0.816,0.305-1.168c0.172-0.391,0.498-0.712,0.688-1.171c0.159-0.385,0.205-0.893,0.378-1.405
				c0.168-0.479,0.532-0.943,0.688-1.402c0.216-0.641,0.227-1.286,0.383-1.876c0.156-0.602,0.522-1.077,0.686-1.559
				c0.225-0.669,0.553-2.448-0.076-2.731c-0.536-0.244-1.404,0.651-1.681,0.859c-0.616,0.464-0.984,0.93-1.6,1.091
				c-1.613,0.414-2.545-0.415-3.358-1.014c-0.872-0.643-1.343-1.23-2.595-1.171C66.824,4.119,66.496,4.126,66.167,4.254z"/>
			<path fill-rule="evenodd" clip-rule="evenodd" fill="#706F6F" d="M60.594,10.108c0.088,0.92-0.107,1.555-0.378,2.107
				c0.675,0.751,0.913,2.376,0.378,3.512c-0.816,0.219-1.321,1.414-2.592,1.168c-0.635-0.119-1.662-0.906-1.68-1.324
				c-0.04-1.138,1.484-0.562,1.909-0.078c0.557-0.156,1.093-0.338,1.375-0.78c0.647-1.521-1.212-1.651-1.297-2.342
				c-0.08-0.636,1.248-1.564,0.076-2.183c-0.686,0.055-0.688,0.807-1.603,0.624c-0.067-0.14-0.17-0.241-0.304-0.311
				c0.057-1.358,1.558-2.146,2.669-1.639C59.756,9.136,60.083,9.874,60.594,10.108z"/>
			<path fill-rule="evenodd" clip-rule="evenodd" fill="#706F6F" d="M64.412,8.782c0.844-0.123,2.189,0.992,2.517,1.64
				c0.518,1.033,0.498,3.556,0.075,4.604c-0.35,0.869-1.682,1.912-2.444,1.869c-0.376-0.018-1.099-0.439-1.446-0.777
				c-0.205-0.199-0.246-0.555-0.458-0.859c-0.23-0.327-0.517-0.444-0.608-0.703c-0.304-0.811-0.198-2.546,0.071-3.433
				C62.451,10.041,63.485,8.917,64.412,8.782z M65.787,14.478c-0.135-1.056,0.247-2.266,0-3.2c-0.167-0.612-0.904-1.009-1.299-1.327
				c-1.246,0.915-1.275,4.707,0,5.619C65.047,15.336,65.4,14.89,65.787,14.478z"/>
			<path fill-rule="evenodd" clip-rule="evenodd" fill="#706F6F" d="M74.328,25.012c0.271,0.412,0.42,1.76-0.151,2.264
				c-0.787,0.693-4.062,0.311-5.723,0.311c-4.06,0-7.997,0-12.058,0c-1.704,0-4.946,0.354-5.721-0.234
				c-0.639-0.48-0.497-1.801-0.227-2.34c1.629-0.521,4.29-0.312,6.639-0.312c3.823,0,7.878,0,11.746,0
				C70.759,24.699,72.657,24.49,74.328,25.012z"/>
		</g>
	</g>
</g>
</svg>
