<?xml version="1.0" encoding="utf-8"?>
<!-- Generator: Adobe Illustrator 16.0.0, SVG Export Plug-In . SVG Version: 6.00 Build 0)  -->
<!DOCTYPE svg PUBLIC "-//W3C//DTD SVG 1.1//EN" "http://www.w3.org/Graphics/SVG/1.1/DTD/svg11.dtd">
<svg version="1.1" id="Layer_1" xmlns="http://www.w3.org/2000/svg" xmlns:xlink="http://www.w3.org/1999/xlink" x="0px" y="0px"
	 width="2016px" height="80px" viewBox="0 0 2016 80" enable-background="new 0 0 2016 80" xml:space="preserve">
<image overflow="visible" enable-background="new    " width="1920" height="77" xlink:href="93466EB78E400C98.jpeg"  transform="matrix(1.05 0 0 1.039 0 9.765625e-04)">
</image>
<linearGradient id="SVGID_1_" gradientUnits="userSpaceOnUse" x1="8449.0947" y1="8.3794" x2="7198.5454" y2="55.1287" gradientTransform="matrix(-1 0 0 1 8044.0215 0)">
	<stop  offset="0" style="stop-color:#1D1C1A"/>
	<stop  offset="1" style="stop-color:#1D1C1A;stop-opacity:0"/>
</linearGradient>
<rect x="-1" y="-0.497" fill="url(#SVGID_1_)" width="883.741" height="81"/>
</svg>
