<?xml version="1.0" encoding="utf-8"?>
<!-- Generator: Adobe Illustrator 16.0.4, SVG Export Plug-In . SVG Version: 6.00 Build 0)  -->
<!DOCTYPE svg PUBLIC "-//W3C//DTD SVG 1.1//EN" "http://www.w3.org/Graphics/SVG/1.1/DTD/svg11.dtd">
<svg version="1.1" id="Layer_1" xmlns="http://www.w3.org/2000/svg" xmlns:xlink="http://www.w3.org/1999/xlink" x="0px" y="0px"
	 width="140px" height="140px" viewBox="0 0 140 140" enable-background="new 0 0 140 140" xml:space="preserve">
<path d="M70.001,1C31.893,1,1,31.893,1,70.002C1,108.11,31.893,139,70.001,139C108.108,139,139,108.11,139,70.002
	C139,31.893,108.108,1,70.001,1z M87.895,28.107c2.167-0.36,4.69,0.253,5.817,1.159c4.834,3.914,3.76,17.041-2.162,19.449
	c-1.854,0.753-5.469,0.704-7.479-0.997C78.504,43.008,80.996,29.257,87.895,28.107z M68.449,21.629c0.887,0,1.773,0,2.659,0
	c11.354,1.6,9.957,28.108-3.822,24.094C58.688,43.22,58.386,22.814,68.449,21.629z M49.006,28.107c0.558-0.093,2.467-0.252,3.489,0
	c7.454,1.825,8.955,20.388-0.663,21.105C41.046,50.021,40.025,29.64,49.006,28.107z M58.644,105.218
	c-0.195,2.241-0.266,4.35-1.495,5.652c-1.595,1.69-5.623,1.778-7.478,0.497c-2.049-1.412-2.665-7.426-3.325-11.8
	c-1.455-9.652-2.745-17.092-4.984-25.259c-2.678-9.762-4.339-22.155,7.478-23.265c2.351-0.221,4.689,0.045,6.648,0.33
	c0.363,0.866-0.533,1.371-0.832,1.994c-3.758,7.815-0.467,18.3,1.663,26.754c0.718,2.858,1.172,6.069,1.661,9.143
	c0.502,3.161,1.269,6.467,1.33,9.306C59.348,100.443,58.847,102.896,58.644,105.218z M73.769,117.518
	c-1.394,0.966-5.951,1.368-7.979-0.168c-2.386-1.811-2.716-8.335-3.323-13.461c-1.456-12.292-2.209-18.245-4.654-28.583
	c-1.406-5.958-3.729-15.17-0.664-21.104c1.858-3.603,5.7-5.382,9.806-5.819c9.645-1.03,16.506,2.442,17.116,12.297
	c0.311,4.984-1.218,10.845-2.16,14.626c-2.255,9.043-3.596,18.217-4.818,28.751C76.481,109.314,76.108,115.894,73.769,117.518z
	 M98.363,74.309c-2.21,8.126-3.491,15.352-4.985,25.259c-0.661,4.387-1.269,10.381-3.324,11.8c-2.225,1.536-6.618,1.016-7.978-1.163
	c-0.765-1.225-0.988-3.557-1.163-5.482c-0.757-8.293,0.582-16.85,2.493-24.6c2.374-9.613,5.781-20.396,0.498-28.748
	c9.067-1.527,16.034,1.073,16.619,9.805C100.833,65.787,99.47,70.236,98.363,74.309z"/>
</svg>
