<?xml version="1.0" encoding="utf-8"?>
<!-- Generator: Adobe Illustrator 16.0.4, SVG Export Plug-In . SVG Version: 6.00 Build 0)  -->
<!DOCTYPE svg PUBLIC "-//W3C//DTD SVG 1.1//EN" "http://www.w3.org/Graphics/SVG/1.1/DTD/svg11.dtd">
<svg version="1.1" id="Layer_1" xmlns="http://www.w3.org/2000/svg" xmlns:xlink="http://www.w3.org/1999/xlink" x="0px" y="0px"
	 width="140px" height="140px" viewBox="0 0 140 140" enable-background="new 0 0 140 140" xml:space="preserve">
<path d="M70,139c38.108,0,69-30.891,69-68.999c0-38.107-30.892-69-69-69C31.892,1,1,31.893,1,70C1,108.109,31.892,139,70,139z
	 M53.114,89.515c-8.549-0.824-13.637-5.107-15.971-12.148c2.188,0.551,5.408,0.289,7.49-0.145
	c-7.76-2.604-13.28-7.448-13.709-17.378c2.199,1.047,4.5,1.996,7.631,2.118c-0.749-0.974-1.988-1.597-2.967-2.686
	c-4.192-4.669-6.377-14.158-2.261-20.49c8.495,9.497,18.983,17.005,35.895,18.088C67.208,45.757,74.5,36.374,84.768,35.538
	c5.91-0.487,10.812,2.086,14.273,5.507c4.133-0.857,7.621-2.364,10.883-4.097c-1.405,4.251-4.078,7.229-7.492,9.467
	c3.787-0.407,6.922-1.464,9.895-2.682c-2.354,3.531-5.334,6.441-8.621,9.043c0.047,21.708-10.417,36.909-24.447,45.222
	c-6.912,4.096-16.269,6.818-26.429,6.5c-10.162-0.316-18.109-3.469-25.156-7.633C38.691,97.507,47.199,94.447,53.114,89.515z"/>
</svg>
